{
    "results": [
        {
            "vote_count": 2234,
            "id": 399055,
            "video": false,
            "vote_average": 7.4,
            "title": "The Shape of Water",
            "popularity": 452.295995,
            "poster_path": "\/k4FwHlMhuRR5BISY2Gm2QZHlH5Q.jpg",
            "original_language": "en",
            "original_title": "The Shape of Water",
            "genre_ids": [
                18,
                14,
                10749
            ],
            "backdrop_path": "\/rgyhSn3mINvkuy9iswZK0VLqQO3.jpg",
            "adult": false,
            "overview": "An other-worldly story, set against the backdrop of Cold War era America circa 1962, where a mute janitor working at a lab falls in love with an amphibious man being held captive there and devises a plan to help him escape.",
            "release_date": "2017-12-01"
        },
        {
            "vote_count": 2597,
            "id": 284054,
            "video": false,
            "vote_average": 7.4,
            "title": "Black Panther",
            "popularity": 309.731075,
            "poster_path": "\/uxzzxijgPIY7slzFvMotPv8wjKA.jpg",
            "original_language": "en",
            "original_title": "Black Panther",
            "genre_ids": [
                28,
                12,
                14,
                878
            ],
            "backdrop_path": "\/b6ZJZHUdMEFECvGiDpJjlfUWela.jpg",
            "adult": false,
            "overview": "After the events of Captain America: Civil War, King T'Challa returns home to the reclusive, technologically advanced African nation of Wakanda to serve as his country's new leader. However, T'Challa soon finds that he is challenged for the throne from factions within his own country. When two foes conspire to destroy Wakanda, the hero known as Black Panther must team up with C.I.A. agent Everett K. Ross and members of the Dora Milaje, Wakandan special forces, to prevent Wakanda from being dragged into a world war.",
            "release_date": "2018-02-13"
        },
        {
            "vote_count": 4703,
            "id": 284053,
            "video": false,
            "vote_average": 7.4,
            "title": "Thor: Ragnarok",
            "popularity": 232.834061,
            "poster_path": "\/oSLd5GYGsiGgzDPKTwQh7wamO8t.jpg",
            "original_language": "en",
            "original_title": "Thor: Ragnarok",
            "genre_ids": [
                878,
                28,
                12,
                35,
                14
            ],
            "backdrop_path": "\/kaIfm5ryEOwYg8mLbq8HkPuM1Fo.jpg",
            "adult": false,
            "overview": "Thor is imprisoned on the other side of the universe and finds himself in a race against time to get back to Asgard to stop Ragnarok, the prophecy of destruction to his homeworld and the end of Asgardian civilization, at the hands of an all-powerful new threat, the ruthless Hela.",
            "release_date": "2017-10-25"
        },
        {
            "vote_count": 2931,
            "id": 354912,
            "video": false,
            "vote_average": 7.8,
            "title": "Coco",
            "popularity": 207.807853,
            "poster_path": "\/eKi8dIrr8voobbaGzDpe8w0PVbC.jpg",
            "original_language": "en",
            "original_title": "Coco",
            "genre_ids": [
                12,
                16,
                35,
                10751
            ],
            "backdrop_path": "\/askg3SMvhqEl4OL52YuvdtY40Yb.jpg",
            "adult": false,
            "overview": "Despite his family’s baffling generations-old ban on music, Miguel dreams of becoming an accomplished musician like his idol, Ernesto de la Cruz. Desperate to prove his talent, Miguel finds himself in the stunning and colorful Land of the Dead following a mysterious chain of events. Along the way, he meets charming trickster Hector, and together, they set off on an extraordinary journey to unlock the real story behind Miguel's family history.",
            "release_date": "2017-10-27"
        },
        {
            "vote_count": 806,
            "id": 337167,
            "video": false,
            "vote_average": 6.3,
            "title": "Fifty Shades Freed",
            "popularity": 197.210504,
            "poster_path": "\/jjPJ4s3DWZZvI4vw8Xfi4Vqa1Q8.jpg",
            "original_language": "en",
            "original_title": "Fifty Shades Freed",
            "genre_ids": [
                18,
                10749
            ],
            "backdrop_path": "\/9ywA15OAiwjSTvg3cBs9B7kOCBF.jpg",
            "adult": false,
            "overview": "Believing they have left behind shadowy figures from their past, newlyweds Christian and Ana fully embrace an inextricable connection and shared life of luxury. But just as she steps into her role as Mrs. Grey and he relaxes into an unfamiliar stability, new threats could jeopardize their happy ending before it even begins.",
            "release_date": "2018-02-07"
        },
        {
            "vote_count": 237,
            "id": 401981,
            "video": false,
            "vote_average": 6.5,
            "title": "Red Sparrow",
            "popularity": 139.957468,
            "poster_path": "\/uZwnaMQTdwZz1kwtrrU3IOqxnDu.jpg",
            "original_language": "en",
            "original_title": "Red Sparrow",
            "genre_ids": [
                9648,
                53
            ],
            "backdrop_path": "\/sGzuQYSTwJvLBc2PnuSVLHhuFeh.jpg",
            "adult": false,
            "overview": "Prima ballerina Dominika Egorova faces a bleak and uncertain future after she suffers an injury that ends her career. She soon turns to Sparrow School, a secret intelligence service that trains exceptional young people to use their minds and bodies as weapons. Egorova emerges as the most dangerous Sparrow after completing the sadistic training process. As she comes to terms with her new abilities, Dominika meets a CIA agent who tries to convince her that he is the only person she can trust.",
            "release_date": "2018-03-01"
        },
        {
            "vote_count": 487,
            "id": 460793,
            "video": false,
            "vote_average": 5.9,
            "title": "Olaf's Frozen Adventure",
            "popularity": 119.927764,
            "poster_path": "\/As8WTtxXs9e3cBit3ztTf7zoRmm.jpg",
            "original_language": "en",
            "original_title": "Olaf's Frozen Adventure",
            "genre_ids": [
                12,
                16,
                35,
                10751,
                14,
                10402
            ],
            "backdrop_path": "\/9K4QqQZg4TVXcxBGDiVY4Aey3Rn.jpg",
            "adult": false,
            "overview": "Olaf is on a mission to harness the best holiday traditions for Anna, Elsa, and Kristoff.",
            "release_date": "2017-10-27"
        },
        {
            "vote_count": 1981,
            "id": 359940,
            "video": false,
            "vote_average": 8.2,
            "title": "Three Billboards Outside Ebbing, Missouri",
            "popularity": 112.241598,
            "poster_path": "\/vgvw6w1CtcFkuXXn004S5wQsHRl.jpg",
            "original_language": "en",
            "original_title": "Three Billboards Outside Ebbing, Missouri",
            "genre_ids": [
                80,
                18
            ],
            "backdrop_path": "\/bJLJAtGjBj836UjJZNOwgrfe5Ps.jpg",
            "adult": false,
            "overview": "After seven months have passed without a culprit in her daughter's murder case, Mildred Hayes makes a bold move, painting three signs leading into her town with a controversial message directed at Bill Willoughby, the town's revered chief of police. When his second-in-command Officer Jason Dixon, an immature mother's boy with a penchant for violence, gets involved, the battle between Mildred and Ebbing's law enforcement is only exacerbated.",
            "release_date": "2017-11-10"
        },
        {
            "vote_count": 1232,
            "id": 391713,
            "video": false,
            "vote_average": 7.6,
            "title": "Lady Bird",
            "popularity": 61.952779,
            "poster_path": "\/vbvHTI7vfPKsONw75g9lio38SpN.jpg",
            "original_language": "en",
            "original_title": "Lady Bird",
            "genre_ids": [
                35,
                18
            ],
            "backdrop_path": "\/2ByWxoMbfE3pxztCJn5qTJ5Ui2Y.jpg",
            "adult": false,
            "overview": "A California high school student plans to escape from her family and small town by going to college in New York.",
            "release_date": "2017-09-08"
        },
        {
            "vote_count": 1,
            "id": 499772,
            "video": false,
            "vote_average": 1,
            "title": "Meet Me In St. Gallen",
            "popularity": 59.753209,
            "poster_path": "\/uGntNjUx6YAzbVy7RDgxWnWsdet.jpg",
            "original_language": "tl",
            "original_title": "Meet Me In St. Gallen",
            "genre_ids": [
                18,
                10749
            ],
            "backdrop_path": "\/4QrbczSQGZQA7BG9xMhccQI7LHm.jpg",
            "adult": false,
            "overview": "The story of Jesse and Celeste who meets at an unexpected time in their lives. They then realize their names are the same as the characters in the popular break-up romantic comedy, Celeste and Jesse Forever.",
            "release_date": "2018-02-07"
        },
        {
            "vote_count": 515,
            "id": 353616,
            "video": false,
            "vote_average": 6.5,
            "title": "Pitch Perfect 3",
            "popularity": 58.719311,
            "poster_path": "\/fchHLsLjFvzAFSQykiMwdF1051.jpg",
            "original_language": "en",
            "original_title": "Pitch Perfect 3",
            "genre_ids": [
                35,
                10402
            ],
            "backdrop_path": "\/f5a9YRvJ7uSM0JAtEI59sqKRnVg.jpg",
            "adult": false,
            "overview": "After the highs of winning the world championships, the Bellas find themselves split apart and discovering there aren't job prospects for making music with your mouth. But when they get the chance to reunite for an overseas USO tour, this group of awesome nerds will come together to make some music, and some questionable decisions, one last time.",
            "release_date": "2017-12-21"
        },
        {
            "vote_count": 909,
            "id": 336843,
            "video": false,
            "vote_average": 7.3,
            "title": "Maze Runner: The Death Cure",
            "popularity": 57.763891,
            "poster_path": "\/7GgZ6DGezkh3szFdvskH5XD4V0t.jpg",
            "original_language": "en",
            "original_title": "Maze Runner: The Death Cure",
            "genre_ids": [
                28,
                9648,
                878,
                53,
                12,
                14
            ],
            "backdrop_path": "\/bvbyidkMaBls1LTaIWYY6UmYTaL.jpg",
            "adult": false,
            "overview": "Thomas leads his group of escaped Gladers on their final and most dangerous mission yet. To save their friends, they must break into the legendary Last City, a WCKD-controlled labyrinth that may turn out to be the deadliest maze of all. Anyone who makes it out alive will get answers to the questions the Gladers have been asking since they first arrived in the maze.",
            "release_date": "2018-01-17"
        },
        {
            "vote_count": 1496,
            "id": 398818,
            "video": false,
            "vote_average": 8.3,
            "title": "Call Me by Your Name",
            "popularity": 55.139562,
            "poster_path": "\/nPTjj6ZfBXXBwOhd7iUy6tyuKWt.jpg",
            "original_language": "en",
            "original_title": "Call Me by Your Name",
            "genre_ids": [
                10749,
                18
            ],
            "backdrop_path": "\/vABQeCuuagIjir0YBAfL0V2XePn.jpg",
            "adult": false,
            "overview": "Elio Perlman is spending the summer with his family at their vacation home in Lombardy, Italy. When his father hires a handsome doctoral student, the curious 17-year-old finds himself developing a growing attraction to the young man.",
            "release_date": "2017-10-27"
        },
        {
            "vote_count": 694,
            "id": 389015,
            "video": false,
            "vote_average": 7.5,
            "title": "I, Tonya",
            "popularity": 51.20613,
            "poster_path": "\/6gNXwSHxaksR1PjVZRqNapmkgj3.jpg",
            "original_language": "en",
            "original_title": "I, Tonya",
            "genre_ids": [
                18
            ],
            "backdrop_path": "\/jDai0rdlBHhcY8vpJ4XmTIDQU5i.jpg",
            "adult": false,
            "overview": "Competitive ice skater Tonya Harding rises amongst the ranks at the U.S. Figure Skating Championships, but her future in the sport is thrown into doubt when her ex-husband intervenes.",
            "release_date": "2017-12-08"
        },
        {
            "vote_count": 1144,
            "id": 399404,
            "video": false,
            "vote_average": 7.2,
            "title": "Darkest Hour",
            "popularity": 48.967386,
            "poster_path": "\/xa6G3aKlysQeVg9wOb0dRcIGlWu.jpg",
            "original_language": "en",
            "original_title": "Darkest Hour",
            "genre_ids": [
                18,
                36
            ],
            "backdrop_path": "\/zXwFJMwvQcJFitP9GcHZvHAHGe8.jpg",
            "adult": false,
            "overview": "A thrilling and inspiring true story begins on the eve of World War II as, within days of becoming Prime Minister of Great Britain, Winston Churchill must face one of his most turbulent and defining trials: exploring a negotiated peace treaty with Nazi Germany, or standing firm to fight for the ideals, liberty and freedom of a nation. As the unstoppable Nazi forces roll across Western Europe and the threat of invasion is imminent, and with an unprepared public, a skeptical King, and his own party plotting against him, Churchill must withstand his darkest hour, rally a nation, and attempt to change the course of world history.",
            "release_date": "2017-11-22"
        },
        {
            "vote_count": 1354,
            "id": 316029,
            "video": false,
            "vote_average": 8.1,
            "title": "The Greatest Showman",
            "popularity": 48.05244,
            "poster_path": "\/dfhztJRiElqmYW4kpvjYe1gENsD.jpg",
            "original_language": "en",
            "original_title": "The Greatest Showman",
            "genre_ids": [
                18,
                10402
            ],
            "backdrop_path": "\/zpq404Sk7qQ7N4x3xOeNgp74GtU.jpg",
            "adult": false,
            "overview": "The story of American showman P.T. Barnum, founder of the circus that became the famous traveling Ringling Bros. and Barnum & Bailey Circus.",
            "release_date": "2017-12-20"
        },
        {
            "vote_count": 492,
            "id": 301337,
            "video": false,
            "vote_average": 5.1,
            "title": "Downsizing",
            "popularity": 44.955258,
            "poster_path": "\/uLlmtN33rMuimRq6bu0OoNzCGGs.jpg",
            "original_language": "en",
            "original_title": "Downsizing",
            "genre_ids": [
                35,
                18,
                878
            ],
            "backdrop_path": "\/5RzW9i3vFsXCPLqYwgNJV1QuSgk.jpg",
            "adult": false,
            "overview": "A kindly occupational therapist undergoes a new procedure to be shrunken to four inches tall so that he and his wife can help save the planet and afford a nice lifestyle at the same time.",
            "release_date": "2017-12-22"
        },
        {
            "vote_count": 15,
            "id": 407451,
            "video": false,
            "vote_average": 4.1,
            "title": "A Wrinkle in Time",
            "popularity": 44.206424,
            "poster_path": "\/rSb6B7pwiZbW7In6juYEYjZ4Bsw.jpg",
            "original_language": "en",
            "original_title": "A Wrinkle in Time",
            "genre_ids": [
                12,
                878,
                10751,
                14
            ],
            "backdrop_path": "\/zqUaMojohr96itJYCE3W1NauTn7.jpg",
            "adult": false,
            "overview": "After the disappearance of her scientist father, three peculiar beings send Meg, her brother, and her friend to space in order to find him.",
            "release_date": "2018-03-08"
        },
        {
            "vote_count": 6864,
            "id": 8587,
            "video": false,
            "vote_average": 8.1,
            "title": "The Lion King",
            "popularity": 43.432416,
            "poster_path": "\/bKPtXn9n4M4s8vvZrbw40mYsefB.jpg",
            "original_language": "en",
            "original_title": "The Lion King",
            "genre_ids": [
                10751,
                16,
                18
            ],
            "backdrop_path": "\/klI0K4oQMsLhHdjA9Uw8WLugk9v.jpg",
            "adult": false,
            "overview": "A young lion cub named Simba can't wait to be king. But his uncle craves the title for himself and will stop at nothing to get it.",
            "release_date": "1994-06-23"
        },
        {
            "vote_count": 1372,
            "id": 406997,
            "video": false,
            "vote_average": 8.2,
            "title": "Wonder",
            "popularity": 41.438766,
            "poster_path": "\/ouYgAatYH4JzIThj6FI3UYf31RI.jpg",
            "original_language": "en",
            "original_title": "Wonder",
            "genre_ids": [
                18
            ],
            "backdrop_path": "\/4rsrxYDfIzvtAsIE9wevxPRXAk4.jpg",
            "adult": false,
            "overview": "The story of August Pullman – a boy with facial differences – who enters fifth grade, attending a mainstream elementary school for the first time.",
            "release_date": "2017-11-13"
        }
    ],
    "page": 1,
    "total_results": 942,
    "dates": {
        "maximum": "2018-03-16",
        "minimum": "2018-01-25"
    },
    "total_pages": 48
}