{
    "page": 1,
    "total_results": 262,
    "total_pages": 14,
    "results": [
        {
            "original_name": "The Walking Dead",
            "genre_ids": [
                18,
                10759,
                10765
            ],
            "name": "The Walking Dead",
            "popularity": 248.813492,
            "origin_country": [
                "US"
            ],
            "vote_count": 3099,
            "first_air_date": "2010-10-31",
            "backdrop_path": "\/xVzvD5BPAU4HpleFSo8QOdHkndo.jpg",
            "original_language": "en",
            "id": 1402,
            "vote_average": 7.4,
            "overview": "Sheriff's deputy Rick Grimes awakens from a coma to find a post-apocalyptic world dominated by flesh-eating zombies. He sets out to find his family and encounters many other survivors along the way.",
            "poster_path": "\/vxuoMW6YBt6UsxvMfRNwRl9LtWS.jpg"
        },
        {
            "original_name": "The Simpsons",
            "genre_ids": [
                16,
                35
            ],
            "name": "The Simpsons",
            "popularity": 156.028561,
            "origin_country": [
                "US"
            ],
            "vote_count": 1322,
            "first_air_date": "1989-12-17",
            "backdrop_path": "\/f5uNbUC76oowt5mt5J9QlqrIYQ6.jpg",
            "original_language": "en",
            "id": 456,
            "vote_average": 7.1,
            "overview": "Set in Springfield, the average American town, the show focuses on the antics and everyday adventures of the Simpson family; Homer, Marge, Bart, Lisa and Maggie, as well as a virtual cast of thousands. Since the beginning, the series has been a pop culture icon, attracting hundreds of celebrities to guest star. The show has also made name for itself in its fearless satirical take on politics, media and American life in general.",
            "poster_path": "\/yTZQkSsxUFJZJe67IenRM0AEklc.jpg"
        },
        {
            "original_name": "Family Guy",
            "genre_ids": [
                16,
                35
            ],
            "name": "Family Guy",
            "popularity": 129.062804,
            "origin_country": [
                "US"
            ],
            "vote_count": 885,
            "first_air_date": "1999-01-31",
            "backdrop_path": "\/pH38r4TWTqq7Mcs6XAlwgzNUeJe.jpg",
            "original_language": "en",
            "id": 1434,
            "vote_average": 6.7,
            "overview": "Sick, twisted, politically incorrect and Freakin' Sweet animated series featuring the adventures of the dysfunctional Griffin family. Bumbling Peter and long-suffering Lois have three kids. Stewie (a brilliant but sadistic baby bent on killing his mother and taking over the world), Meg (the oldest, and is the most unpopular girl in town) and Chris (the middle kid, he's not very bright but has a passion for movies). The final member of the family is Brian - a talking dog and much more than a pet, he keeps Stewie in check whilst sipping Martinis and sorting through his own life issues.",
            "poster_path": "\/gBGUL1UTUNmdRQT8gA1LUV4yg39.jpg"
        },
        {
            "original_name": "Secret Story - Casa dos Segredos",
            "genre_ids": [
                10764
            ],
            "name": "Secret Story - Casa dos Segredos",
            "popularity": 114.45559,
            "origin_country": [
                "PT"
            ],
            "vote_count": 0,
            "first_air_date": "2010-10-03",
            "backdrop_path": "\/9tVjS10eB5idktPSs6nJmyJ4teh.jpg",
            "original_language": "pt",
            "id": 72837,
            "vote_average": 0,
            "overview": "Secret Story takes more or less the basic principles of Big Brother, a reality show created in 1997 by the Dutchman John de Mol. The game contestants are cut off from the rest of the world during ten to fifteen weeks in a house called “house of secrets”, where every room is fitted with video cameras, except the restroom. They have to keep a secret while trying to discover the other contestants’ one.",
            "poster_path": "\/pyruRb239sh6DUtj8FtjtOZG1d4.jpg"
        },
        {
            "original_name": "The Flash",
            "genre_ids": [
                18,
                10765
            ],
            "name": "The Flash",
            "popularity": 106.901957,
            "origin_country": [
                "US"
            ],
            "vote_count": 1882,
            "first_air_date": "2014-10-07",
            "backdrop_path": "\/mmxxEpTqVdwBlu5Pii7tbedBkPC.jpg",
            "original_language": "en",
            "id": 60735,
            "vote_average": 6.7,
            "overview": "After a particle accelerator causes a freak storm, CSI Investigator Barry Allen is struck by lightning and falls into a coma. Months later he awakens with the power of super speed, granting him the ability to move through Central City like an unseen guardian angel. Though initially excited by his newfound powers, Barry is shocked to discover he is not the only \"meta-human\" who was created in the wake of the accelerator explosion -- and not everyone is using their new powers for good. Barry partners with S.T.A.R. Labs and dedicates his life to protect the innocent. For now, only a few close friends and associates know that Barry is literally the fastest man alive, but it won't be long before the world learns what Barry Allen has become...The Flash.",
            "poster_path": "\/lUFK7ElGCk9kVEryDJHICeNdmd1.jpg"
        },
        {
            "original_name": "Homeland",
            "genre_ids": [
                18
            ],
            "name": "Homeland",
            "popularity": 105.824473,
            "origin_country": [
                "US"
            ],
            "vote_count": 755,
            "first_air_date": "2011-10-02",
            "backdrop_path": "\/hTxfw4af6EizpLM7tHKtoSlbdnu.jpg",
            "original_language": "en",
            "id": 1407,
            "vote_average": 7.3,
            "overview": "CIA officer Carrie Mathison is tops in her field despite being bipolar, which makes her volatile and unpredictable. With the help of her long-time mentor Saul Berenson, Carrie fearlessly risks everything, including her personal well-being and even sanity, at every turn.",
            "poster_path": "\/lT8o38ubu9uzcjZbkDtwsVizDeQ.jpg"
        },
        {
            "original_name": "Gotham",
            "id": 60708,
            "name": "Gotham",
            "popularity": 101.82872,
            "vote_count": 691,
            "vote_average": 6.9,
            "first_air_date": "2014-09-22",
            "poster_path": "\/5tSHzkJ1HBnyGdcpr6wSyw7jYnJ.jpg",
            "genre_ids": [
                80,
                18,
                14,
                53
            ],
            "original_language": "en",
            "backdrop_path": "\/mKBP1OCgCG0jw8DwVYlnYqVILtc.jpg",
            "overview": "Before there was Batman, there was GOTHAM. \n\nEveryone knows the name Commissioner Gordon. He is one of the crime world's greatest foes, a man whose reputation is synonymous with law and order. But what is known of Gordon's story and his rise from rookie detective to Police Commissioner? What did it take to navigate the multiple layers of corruption that secretly ruled Gotham City, the spawning ground of the world's most iconic villains? And what circumstances created them – the larger-than-life personas who would become Catwoman, The Penguin, The Riddler, Two-Face and The Joker? ",
            "origin_country": [
                "US"
            ]
        },
        {
            "original_name": "Marvel's Agents of S.H.I.E.L.D.",
            "genre_ids": [
                28,
                12,
                18,
                14,
                878
            ],
            "name": "Marvel's Agents of S.H.I.E.L.D.",
            "popularity": 89.567878,
            "origin_country": [
                "US"
            ],
            "vote_count": 920,
            "first_air_date": "2013-09-24",
            "backdrop_path": "\/qtr5i6hOm6oVzTYl3jOQAYP3oc7.jpg",
            "original_language": "en",
            "id": 1403,
            "vote_average": 6.7,
            "overview": "Agent Phil Coulson of S.H.I.E.L.D. (Strategic Homeland Intervention, Enforcement and Logistics Division) puts together a team of agents to investigate the new, the strange and the unknown around the globe, protecting the ordinary from the extraordinary.",
            "poster_path": "\/xjm6uVktPuKXNILwjLXwVG5d5BU.jpg"
        },
        {
            "original_name": "Arrow",
            "genre_ids": [
                28,
                12,
                80,
                18,
                9648,
                878
            ],
            "name": "Arrow",
            "popularity": 86.529345,
            "origin_country": [
                "US"
            ],
            "vote_count": 1618,
            "first_air_date": "2012-10-10",
            "backdrop_path": "\/dKxkwAJfGuznW8Hu0mhaDJtna0n.jpg",
            "original_language": "en",
            "id": 1412,
            "vote_average": 6,
            "overview": "Spoiled billionaire playboy Oliver Queen is missing and presumed dead when his yacht is lost at sea. He returns five years later a changed man, determined to clean up the city as a hooded vigilante armed with a bow.",
            "poster_path": "\/mo0FP1GxOFZT4UDde7RFDz5APXF.jpg"
        },
        {
            "original_name": "Grey's Anatomy",
            "genre_ids": [
                18
            ],
            "name": "Grey's Anatomy",
            "popularity": 82.670195,
            "origin_country": [
                "US"
            ],
            "vote_count": 627,
            "first_air_date": "2005-03-27",
            "backdrop_path": "\/hF9yq8MxaTNLJITo0lwgO7eUoTx.jpg",
            "original_language": "en",
            "id": 1416,
            "vote_average": 6.2,
            "overview": "Follows the personal and professional lives of a group of doctors at Seattle’s Grey Sloan Memorial Hospital.",
            "poster_path": "\/mgOZSS2FFIGtfVeac1buBw3Cx5w.jpg"
        },
        {
            "original_name": "Once Upon a Time",
            "genre_ids": [
                18,
                10765
            ],
            "name": "Once Upon a Time",
            "popularity": 70.520907,
            "origin_country": [
                "US"
            ],
            "vote_count": 521,
            "first_air_date": "2011-10-23",
            "backdrop_path": "\/Otzq1sny6BAuvZdAO1EMdUkDUc.jpg",
            "original_language": "en",
            "id": 39272,
            "vote_average": 6.4,
            "overview": "There is a town in Maine where every story book character you've ever known is trapped between two worlds, victims of a powerful curse. Only one knows the truth and only one can break the spell.\n\nEmma Swan is a 28-year-old bail bonds collector who has been supporting herself since she was abandoned as a baby. Things change for her when her son Henry, whom she abandoned years ago, finds her and asks for her help explaining that she is from a different world where she is Snow White's missing daughter.",
            "poster_path": "\/49qD372jeHUTmdNMGJkjCFZdv9y.jpg"
        },
        {
            "original_name": "Law & Order: Special Victims Unit",
            "genre_ids": [
                80,
                18
            ],
            "name": "Law & Order: Special Victims Unit",
            "popularity": 60.645265,
            "origin_country": [
                "US"
            ],
            "vote_count": 399,
            "first_air_date": "1999-09-20",
            "backdrop_path": "\/kOvt2BOOwSAQCT8yo3pM3X2GXjh.jpg",
            "original_language": "en",
            "id": 2734,
            "vote_average": 6.2,
            "overview": "In the criminal justice system, sexually-based offenses are considered especially heinous. In New York City, the dedicated detectives who investigate these vicious felonies are members of an elite squad known as the Special Victims Unit. These are their stories.",
            "poster_path": "\/yzMQBlirydvKp4Zgr5FbXlsrRmw.jpg"
        },
        {
            "original_name": "Lucifer",
            "genre_ids": [
                80,
                10765
            ],
            "name": "Lucifer",
            "popularity": 58.116639,
            "origin_country": [
                "US"
            ],
            "vote_count": 632,
            "first_air_date": "2016-01-25",
            "backdrop_path": "\/6kZCuvbirx6ibJfaWqwV2p90yPI.jpg",
            "original_language": "en",
            "id": 63174,
            "vote_average": 7.3,
            "overview": "Bored and unhappy as the Lord of Hell, Lucifer Morningstar abandoned his throne and retired to Los Angeles, where he has teamed up with LAPD detective Chloe Decker to take down criminals. But the longer he's away from the underworld, the greater the threat that the worst of humanity could escape.",
            "poster_path": "\/wmOuYyqVaczBLXxQNFSaRfAUgPz.jpg"
        },
        {
            "original_name": "American Dad!",
            "genre_ids": [
                16,
                35
            ],
            "name": "American Dad!",
            "popularity": 57.873143,
            "origin_country": [
                "US"
            ],
            "vote_count": 426,
            "first_air_date": "2005-02-06",
            "backdrop_path": "\/2OeS0YPFpqCmi7SA5W6aOPIChc3.jpg",
            "original_language": "en",
            "id": 1433,
            "vote_average": 6.3,
            "overview": "The series focuses on an eccentric motley crew that is the Smith family and their three housemates: Father, husband, and breadwinner Stan Smith; his better half housewife, Francine Smith; their college-aged daughter, Hayley Smith; and their high-school-aged son, Steve Smith. Outside of the Smith family, there are three additional main characters, including Hayley's boyfriend turned husband, Jeff Fischer; the family's man-in-a-goldfish-body pet, Klaus; and most notably the family's zany alien, Roger, who is \"full of masquerades, brazenness, and shocking antics.\"",
            "poster_path": "\/eo2Xu4UWXHE8UlBlAktNiSsAmfx.jpg"
        },
        {
            "original_name": "NCIS: Los Angeles",
            "genre_ids": [
                80,
                18,
                9648,
                10759
            ],
            "name": "NCIS: Los Angeles",
            "popularity": 54.200868,
            "origin_country": [
                "US"
            ],
            "vote_count": 206,
            "first_air_date": "2009-09-22",
            "backdrop_path": "\/dQ8xZxtZtZTq74RjTycO1RKoqi0.jpg",
            "original_language": "en",
            "id": 17610,
            "vote_average": 6.4,
            "overview": "The exploits of the Los Angeles–based Office of Special Projects (OSP), an elite division of the Naval Criminal Investigative Service that specializes in undercover assignments.",
            "poster_path": "\/YuY3IbeLnTYxJJ3PruZ6gl3LqK.jpg"
        },
        {
            "original_name": "DC's Legends of Tomorrow",
            "genre_ids": [
                18,
                10759,
                10765
            ],
            "name": "DC's Legends of Tomorrow",
            "popularity": 51.064344,
            "origin_country": [
                "US"
            ],
            "vote_count": 470,
            "first_air_date": "2016-01-21",
            "backdrop_path": "\/AuZYwTktioCd13hhogAU0Bup2Cz.jpg",
            "original_language": "en",
            "id": 62643,
            "vote_average": 6.1,
            "overview": "When heroes alone are not enough ... the world needs legends. Having seen the future, one he will desperately try to prevent from happening, time-traveling rogue Rip Hunter is tasked with assembling a disparate group of both heroes and villains to confront an unstoppable threat — one in which not only is the planet at stake, but all of time itself. Can this ragtag team defeat an immortal threat unlike anything they have ever known?",
            "poster_path": "\/qEobyOhOTSse59ym0gIxsQgcRGZ.jpg"
        },
        {
            "original_name": "The X-Files",
            "genre_ids": [
                18,
                9648,
                10765
            ],
            "name": "The X-Files",
            "popularity": 49.914823,
            "origin_country": [
                "US"
            ],
            "vote_count": 752,
            "first_air_date": "1993-09-10",
            "backdrop_path": "\/5Ycqqaf27bNWyxm7XRc9gRVniYe.jpg",
            "original_language": "en",
            "id": 4087,
            "vote_average": 8.1,
            "overview": "The exploits of FBI Special Agents Fox Mulder and Dana Scully who investigate X-Files: marginalized, unsolved cases involving paranormal phenomena. Mulder believes in the existence of aliens and the paranormal while Scully, a skeptic, is assigned to make scientific analyses of Mulder's discoveries that debunk Mulder's work and thus return him to mainstream cases.",
            "poster_path": "\/5BD0kiTGnDxONqdrsswTewnk6WH.jpg"
        },
        {
            "original_name": "Heartland",
            "genre_ids": [
                18
            ],
            "name": "Heartland",
            "popularity": 49.809679,
            "origin_country": [
                "CA"
            ],
            "vote_count": 70,
            "first_air_date": "2007-10-14",
            "backdrop_path": "\/7OcKx5B2h7MwjTZ2wrERvmUxUD4.jpg",
            "original_language": "en",
            "id": 14929,
            "vote_average": 7.4,
            "overview": "Life is hard on the Flemings' ranch in the Alberta foothills where abused or neglected horses find refuge with a kind, hard-working family. Debts abound and the bank is about to foreclose. Can they keep the ranch running?",
            "poster_path": "\/noaJSeDhhcFueV7v8j2qHuKrLR1.jpg"
        },
        {
            "original_name": "The Blacklist",
            "genre_ids": [
                80,
                18,
                9648
            ],
            "name": "The Blacklist",
            "popularity": 45.370436,
            "origin_country": [
                "US"
            ],
            "vote_count": 664,
            "first_air_date": "2013-09-23",
            "backdrop_path": "\/6yDkRqCqpGkCvX49onaqG605gct.jpg",
            "original_language": "en",
            "id": 46952,
            "vote_average": 7,
            "overview": "Raymond \"Red\" Reddington, one of the FBI's most wanted fugitives, surrenders in person at FBI Headquarters in Washington, D.C. He claims that he and the FBI have the same interests: bringing down dangerous criminals and terrorists. In the last two decades, he's made a list of criminals and terrorists that matter the most but the FBI cannot find because it does not know they exist. Reddington calls this \"The Blacklist\". Reddington will co-operate, but insists that he will speak only to Elizabeth Keen, a rookie FBI profiler.",
            "poster_path": "\/bgbQCW4fE9b6wSOSC6Fb4FfVzsW.jpg"
        },
        {
            "original_name": "Riverdale",
            "genre_ids": [
                18,
                9648
            ],
            "name": "Riverdale",
            "popularity": 45.167332,
            "origin_country": [
                "US"
            ],
            "vote_count": 212,
            "first_air_date": "2017-01-26",
            "backdrop_path": "\/2IUpoKSP64r6rp2vBo0Fdk8a1UU.jpg",
            "original_language": "en",
            "id": 69050,
            "vote_average": 7.1,
            "overview": "Set in the present, the series offers a bold, subversive take on Archie, Betty, Veronica and their friends, exploring the surreality of small-town life, the darkness and weirdness bubbling beneath Riverdale’s wholesome facade.",
            "poster_path": "\/1TsbOTztAJtzTRXAhoLsX9a83XX.jpg"
        }
    ]
}